<svg width="80" height="18" viewBox="0 0 80 18" fill="none" xmlns="http://www.w3.org/2000/svg">
<path d="M77.1316 43.7902C77.6516 46.5392 79.0915 49.2186 79.0005 50.1113C78.8129 51.9144 74.7647 49.8137 74.7647 49.8137C74.7647 49.8137 74.5339 50.3809 75.3543 51.9856C75.9643 53.1768 76.4997 54.05 76.2574 54.6958C76.0012 55.384 74.8319 55.5352 73.4676 55.3924C72.5103 55.2939 71.7012 55.4243 70.6553 56.5766C70.4484 56.7995 70.2369 57.0647 70.0135 57.3702C70.011 57.3722 70.009 57.3722 70.0065 57.3747V57.3772C66.8778 61.0736 62.5988 63.8003 57.5386 65.6751C57.5386 65.6751 49.4284 68.1223 39.5565 68.533C30.9527 68.891 21.0288 67.6523 13.7374 62.5389C11.3168 60.7795 9.20711 58.641 7.54923 56.0661C7.1467 55.9566 6.75313 55.9616 6.32721 56.0134C4.96538 56.1815 3.79312 56.0532 3.52344 55.369C3.27117 54.7277 3.70554 53.7694 4.23744 52.5319C4.66734 51.5333 4.83601 50.9074 4.89522 50.6302C4.91114 50.5586 4.85094 50.5023 4.79471 50.5292C4.09713 50.8885 0.893312 52.4404 0.694783 50.8367C0.586812 49.9456 1.98049 47.2413 2.4482 44.4813C3.21246 39.9789 3.82048 36.8104 4.2051 34.8957C4.21405 34.8445 4.2255 34.7927 4.23744 34.739C4.2464 34.6898 4.25784 34.6385 4.26729 34.5912C4.27625 34.54 4.28769 34.4927 4.29715 34.4459C4.41407 33.8892 4.54394 33.3369 4.69222 32.7871C5.36443 30.2475 6.33866 27.7248 7.58556 24.8678C5.70426 21.6894 -2.24085 7.55108 1.94566 2.09977C4.33496 -1.01151 20.9855 4.95728 24.6296 6.31712C28.5803 4.36368 33.0698 3.14017 38.0693 2.87248C39.0814 2.81675 40.0705 2.80332 41.0398 2.83268C41.0642 2.83069 41.0911 2.83069 41.1134 2.83318C44.7546 2.92871 47.9848 3.92384 51.1021 5.01301C52.4385 5.48271 53.7048 6.03699 54.9039 6.65148C58.563 5.32796 75.6852 -0.678634 78.0457 2.45503C82.1655 7.92674 74.1567 21.9128 72.2142 25.136C72.7063 26.1769 73.1427 27.2039 73.5293 28.2423C73.996 29.4822 74.3816 30.7351 74.6956 32.0372C74.6956 32.0372 74.7 32.0596 74.711 32.1069C74.8423 32.6502 75.7449 36.4372 77.1316 43.7902Z" fill="#FA9B27"/>
<path d="M39.1673 3.47268C38.0032 3.48443 36.8809 3.53751 35.801 3.62969C35.801 3.62969 35.9795 14.3975 38.8989 20.5291C39.0829 20.9162 39.6432 20.9104 39.8184 20.5193C42.5995 14.3288 42.5357 3.56017 42.5357 3.56017C41.4545 3.49012 40.3314 3.46036 39.1673 3.47268Z" fill="#F96328"/>
<path d="M33.7959 3.9637C33.7791 4.11007 33.0969 9.8916 32.1302 14.2398C32.0534 14.5842 31.584 14.6211 31.4585 14.2925C30.7727 12.4971 29.483 8.61913 29.4861 4.84382C30.838 4.47702 32.2722 4.1792 33.7959 3.9637Z" fill="#F96328"/>
<path d="M44.8237 4.04504C44.8437 4.19069 45.6463 9.93686 46.7081 14.2477C46.7919 14.5889 47.2661 14.6148 47.3862 14.2846C48.0418 12.4793 49.2649 8.58421 49.1865 4.82217C47.8152 4.4875 46.3642 4.22414 44.8237 4.04504Z" fill="#F96328"/>
<path d="M17.3771 12.2934C16.588 12.8781 14.6559 15.8913 13.1806 18.3065C12.1228 20.0405 11.2989 21.466 11.2989 21.466C7.57608 18.9195 5.7525 11.3187 5.47586 8.25718C5.31415 6.47142 6.08238 6.69184 6.08238 6.69184C6.32619 6.55253 7.84675 6.86898 9.55091 7.35808C11.7024 7.97457 14.1469 8.86272 14.6748 9.45582C15.6207 10.5156 18.7335 11.2938 17.3771 12.2934Z" fill="#F96328"/>
<path d="M62.6113 12.5045C63.395 13.0961 65.2986 16.1277 66.7515 18.5564C67.7929 20.2998 68.604 21.7328 68.604 21.7328C72.3501 19.2211 74.2449 11.6377 74.5499 8.5787C74.728 6.79443 73.9578 7.00739 73.9578 7.00739C73.7154 6.86608 72.1919 7.1681 70.4833 7.64079C68.3263 8.23737 65.8733 9.10263 65.3399 9.69075C64.3836 10.7431 61.2644 11.4924 62.6113 12.5045Z" fill="#F96328"/>
<g opacity="0.5">
<path opacity="0.5" d="M54.8906 8.92401C53.6914 8.30952 52.4246 7.75523 51.0887 7.28553C47.9714 6.19636 44.7412 5.20123 41.1001 5.1057C41.0777 5.10321 41.0508 5.10321 41.0264 5.1052C40.0572 5.07585 39.068 5.08928 38.056 5.14501C33.0564 5.4127 28.5674 6.63621 24.6163 8.58965C20.9721 7.2298 4.32159 1.26052 1.93229 4.37229C1.32178 5.16839 0.968002 6.14959 0.819728 7.25468C0.588361 5.01514 0.859539 3.01543 1.94523 1.60135C4.33453 -1.50992 20.985 4.45887 24.6292 5.81871C28.5799 3.86527 33.0694 2.64176 38.0689 2.37407C39.081 2.31834 40.0701 2.30491 41.0394 2.33427C41.0637 2.33228 41.0906 2.33227 41.113 2.33476C44.7542 2.43029 47.9844 3.42542 51.1016 4.51459C52.4381 4.98429 53.7044 5.53858 54.9035 6.15308C58.5626 4.82955 75.6848 -1.17705 78.0452 1.95661C79.1175 3.38064 79.3678 5.38086 79.118 7.61791C78.9777 6.51132 78.6353 5.52963 78.0323 4.72755C75.6723 1.59439 58.5497 7.60049 54.8906 8.92401Z" fill="white"/>
</g>
<path d="M6.22823 5.98078C7.33083 6.09273 8.39861 6.29623 9.46638 6.54601C10.5307 6.80076 11.5865 7.10677 12.6209 7.48293C12.8807 7.57398 13.1394 7.66752 13.3952 7.77151C13.6509 7.87501 13.9111 7.96755 14.1629 8.08149C14.6679 8.30739 15.1729 8.53328 15.666 8.79102C16.1671 9.03035 16.6457 9.32093 17.1264 9.60404L17.8304 10.0643L18.0066 10.1797L18.029 10.1947L18.0643 10.2215L18.1345 10.2763C18.1817 10.3121 18.2245 10.3534 18.2668 10.3957C18.4365 10.5638 18.5728 10.7678 18.6634 10.9888C18.847 11.4301 18.846 11.9401 18.6584 12.3839C18.6121 12.4944 18.5549 12.6019 18.4857 12.6989C18.4519 12.7487 18.4171 12.7969 18.3773 12.8412C18.3434 12.881 18.2872 12.9437 18.2733 12.9571L18.0031 13.2388C17.6444 13.6174 17.299 14.012 16.9612 14.4135C16.283 15.2156 15.6332 16.046 15.0152 16.9038C13.7738 18.6169 12.6622 20.4276 11.5845 22.283L11.583 22.2855C11.4865 22.4517 11.274 22.5079 11.1078 22.4114C10.9606 22.3258 10.8999 22.1486 10.9551 21.9944C11.687 19.939 12.6593 17.9616 13.837 16.1062C14.4271 15.1793 15.0675 14.2816 15.7596 13.4204C16.1094 12.9925 16.4676 12.571 16.8443 12.1615L17.1294 11.856C17.1627 11.8217 17.1483 11.8316 17.1592 11.8207C17.1657 11.8157 17.1692 11.8083 17.1727 11.8018C17.1826 11.7903 17.1871 11.7764 17.1936 11.7635C17.2189 11.7122 17.2224 11.6411 17.199 11.5844C17.1881 11.556 17.1727 11.5316 17.1518 11.5097C17.1468 11.5042 17.1428 11.4973 17.1348 11.4938L17.1254 11.4858L17.1214 11.4814L17.1015 11.4679L16.9403 11.3599L16.2965 10.9281C16.078 10.7887 15.8501 10.6624 15.6297 10.525C15.4108 10.3852 15.1834 10.2573 14.953 10.1339C14.0435 9.62245 13.0882 9.17912 12.1214 8.75868C10.1849 7.92775 8.15431 7.24011 6.1118 6.67438L6.09936 6.6709C5.91178 6.61915 5.80182 6.42461 5.85406 6.23702C5.89984 6.06935 6.06055 5.96386 6.22823 5.98078Z" fill="#151515"/>
<path d="M24.5813 67.938C23.5498 67.7659 22.5283 67.5246 21.5192 67.233C20.5132 66.9315 19.5215 66.5702 18.5543 66.1478C18.0716 65.9418 17.5865 65.693 17.1287 65.4398C16.6665 65.186 16.2112 64.9178 15.7649 64.6362C14.8728 64.071 14.012 63.451 13.204 62.7674L13.1651 62.7315C13.2069 62.7738 13.2587 62.8106 13.3124 62.8365L13.2244 62.7818C13.0064 62.6136 12.8626 62.4678 12.7094 62.3171C12.5591 62.1673 12.4168 62.019 12.2755 61.8707L11.4426 60.9871C10.8913 60.4024 10.3365 59.8302 9.76329 59.2864C9.19059 58.7436 8.598 58.2281 7.97704 57.7912C7.66706 57.5748 7.34861 57.3792 7.02967 57.2334C6.87045 57.1638 6.71173 57.0996 6.55898 57.0603C6.39478 57.014 6.29427 57.0051 6.06042 56.9802C5.64993 56.9374 5.23197 56.8856 4.79909 56.7981C4.36721 56.6966 3.90745 56.6035 3.41536 56.2323C3.29545 56.1393 3.17653 56.0164 3.07851 55.8696C3.02577 55.801 2.99044 55.7144 2.95064 55.6348C2.91432 55.5542 2.89441 55.477 2.86954 55.3974C2.79291 55.08 2.81082 54.7944 2.84814 54.5446C2.92974 54.0446 3.08946 53.6435 3.24221 53.2494C3.55916 52.4658 3.89302 51.7672 4.11743 51.0403C4.17465 50.8601 4.2254 50.681 4.26272 50.5113L4.2662 50.4949C4.26819 50.485 4.26371 50.5054 4.26122 50.5198L4.25575 50.5651C4.25077 50.6293 4.25674 50.7009 4.27963 50.7711C4.32441 50.9084 4.43089 51.0661 4.65281 51.1393C4.76128 51.1746 4.89462 51.1731 4.99911 51.1388C5.02448 51.1308 5.04787 51.1219 5.07176 51.1109C5.10758 51.093 5.07922 51.1074 5.0837 51.1049L5.06579 51.1139L4.99463 51.1502L4.71003 51.2905C4.32939 51.4726 3.94179 51.6403 3.53876 51.7886C3.13474 51.9359 2.71877 52.0672 2.25653 52.1458C2.02467 52.1837 1.78086 52.21 1.50521 52.1941C1.23503 52.1737 0.905646 52.1205 0.584219 51.8836C0.428979 51.7637 0.289164 51.603 0.205075 51.4303C0.154324 51.3433 0.133927 51.2607 0.10258 51.1741C0.0777018 51.09 0.0662559 51.0114 0.0508314 50.9293C0.0368996 50.7666 0.0359037 50.585 0.0563039 50.4681C0.0697381 50.3297 0.0946173 50.2163 0.119496 50.1023C0.221496 49.6525 0.354343 49.264 0.48371 48.8714C1.01411 47.3279 1.54551 45.8447 1.79778 44.3206L2.61926 39.5361L3.05264 37.1443L3.28152 35.9471C3.36213 35.5421 3.43626 35.161 3.53727 34.7271L3.52682 34.7744L3.6119 34.4097L3.69201 34.0833L3.8582 33.4339C3.97065 33.002 4.08857 32.5722 4.20947 32.1428C4.45229 31.2845 4.71152 30.4306 4.98717 29.5803C5.54295 27.8816 6.16789 26.1998 6.9426 24.5594L6.97146 25.2306C5.94 23.4876 4.98219 21.7103 4.09305 19.8922C3.20589 18.0741 2.3869 16.2177 1.69578 14.3021C1.00317 12.3884 0.431467 10.4121 0.142382 8.34673C0.00256595 7.31428 -0.050671 6.25297 0.057798 5.17575C0.163779 4.10449 0.468788 2.99293 1.09821 2.02119L1.33952 1.66145C1.38829 1.59627 1.45994 1.51815 1.52114 1.44949C1.58682 1.38281 1.65697 1.3246 1.72613 1.2634C2.00975 1.03651 2.31027 0.894205 2.60085 0.788722C3.18549 0.579247 3.74127 0.517548 4.28461 0.479733C5.36781 0.423011 6.40225 0.517049 7.42325 0.649899C9.46127 0.926545 11.4366 1.38679 13.3925 1.8968C17.2999 2.93521 21.1182 4.20102 24.8992 5.5937L24.2867 5.62505C25.5834 4.98717 26.9193 4.42741 28.2851 3.95622C29.6524 3.4895 31.0481 3.10687 32.4607 2.80933C33.8743 2.51527 35.3043 2.30878 36.7402 2.1814C38.1747 2.05552 39.6167 1.99979 41.0631 2.04358L40.9715 2.04607C41.0457 2.04159 41.1213 2.04258 41.1954 2.04756L41.1337 2.04358C42.3772 2.0809 43.6171 2.20777 44.8331 2.43118C46.0512 2.64762 47.2458 2.95064 48.4181 3.29744C49.0037 3.47209 49.5839 3.65817 50.1606 3.84924C50.7382 4.04727 51.2985 4.22739 51.8976 4.46075C53.0499 4.91851 54.1416 5.41657 55.2457 5.93304L54.6332 5.90369C58.458 4.52891 62.319 3.27356 66.2642 2.23862C68.2391 1.72862 70.2338 1.27136 72.2868 0.980781C73.3152 0.84196 74.3561 0.73797 75.4443 0.772799C75.9896 0.796185 76.5454 0.842456 77.133 1.01014C77.4261 1.09572 77.7276 1.20568 78.0296 1.39226C78.1048 1.44053 78.1794 1.49477 78.2531 1.54751C78.3262 1.60423 78.3974 1.6714 78.4675 1.73459C78.5362 1.80226 78.6004 1.88087 78.6645 1.9565C78.7168 2.02567 78.7491 2.0809 78.7924 2.14409C79.4671 3.11583 79.7995 4.2458 79.9279 5.33447C80.0562 6.43011 80 7.50733 79.8632 8.55421C79.5771 10.6485 78.9845 12.6437 78.2745 14.5742C77.5649 16.5068 76.7255 18.3771 75.819 20.2082C74.9089 22.0387 73.9297 23.827 72.8749 25.5809L72.9152 24.8325C73.1759 25.3943 73.4282 25.9516 73.677 26.5183C73.8013 26.8014 73.9233 27.0865 74.0432 27.3761C74.1636 27.6637 74.282 27.9717 74.387 28.2593C74.8189 29.433 75.1821 30.6331 75.4776 31.8482L75.5 32.0398C75.501 31.9592 75.4881 31.8741 75.4622 31.7974L75.502 32.0492C75.503 31.9562 75.4851 31.8477 75.4433 31.7467C75.402 31.6452 75.3388 31.5551 75.2727 31.4899L75.4642 31.8034C75.4766 31.8437 75.4876 31.885 75.4961 31.9268L75.511 32.0845C75.513 32.0278 75.5065 31.9691 75.4921 31.9144L73.9203 32.2458L73.9158 32.2209L75.4881 31.8915C76.0125 34.0887 76.4738 36.274 76.9236 38.4703L77.5798 41.7647L77.8978 43.4131C77.951 43.6967 78.0028 43.9365 78.0625 44.1982C78.1242 44.4555 78.1909 44.7127 78.266 44.9705C78.5615 46.0029 78.9511 47.0189 79.3417 48.0852C79.4388 48.3529 79.5348 48.6276 79.6248 48.9162C79.6676 49.0679 79.7134 49.2087 79.7497 49.3794C79.7686 49.4625 79.789 49.5386 79.8015 49.6416L79.8214 49.7869L79.8303 49.8605L79.8323 49.9556C79.8408 50.2123 79.804 50.4496 79.69 50.7238C79.5756 50.998 79.3368 51.2602 79.087 51.405C78.8362 51.5547 78.5919 51.6164 78.3784 51.6488C78.168 51.6756 77.9729 51.6781 77.7933 51.6667C77.0823 51.612 76.5051 51.4259 75.9369 51.2254C75.6548 51.1229 75.3801 51.0119 75.1099 50.893L74.7064 50.7094L74.6064 50.6616L74.5606 50.6392L74.5492 50.6337C74.5606 50.6387 74.5069 50.6138 74.5726 50.6442C74.6596 50.6805 74.7517 50.7019 74.8557 50.7044C75.0647 50.7099 75.2637 50.6198 75.3846 50.5044C75.5095 50.388 75.5772 50.2531 75.6075 50.1193C75.6224 50.0521 75.6274 49.9859 75.6239 49.9232C75.6239 49.868 75.5986 49.7615 75.607 49.7993L75.616 49.8342C75.7379 50.3004 75.9304 50.8014 76.1404 51.2866C76.3529 51.7747 76.6031 52.2901 76.8221 52.8544C76.931 53.1405 77.037 53.4435 77.1052 53.8062C77.137 53.9883 77.1604 54.1869 77.1465 54.4142C77.132 54.6411 77.0932 54.8805 76.9574 55.1447C76.828 55.3999 76.63 55.6129 76.435 55.7472C76.3349 55.8258 76.2404 55.8696 76.1409 55.9273C76.0474 55.9681 75.9483 56.0169 75.8573 56.0458C75.4866 56.1746 75.1468 56.2209 74.8199 56.2448C74.4935 56.2672 74.18 56.2612 73.8725 56.2418C73.7192 56.2313 73.567 56.2174 73.4162 56.2L73.1077 56.1816C72.7187 56.1925 72.3191 56.3294 71.9355 56.5637C71.5543 56.8016 71.1926 57.1334 70.8856 57.5066C70.8105 57.5987 70.7344 57.6977 70.6756 57.7833L70.608 57.8828L70.5289 57.9907L70.3816 58.1758C70.1895 58.4092 70.0005 58.6226 69.8089 58.8361L69.4984 59.1749L69.1864 59.476C68.979 59.674 68.7769 59.877 68.5575 60.0651C68.3406 60.2547 68.1311 60.4527 67.9077 60.6343L67.236 61.1771C65.4144 62.5867 63.4097 63.7316 61.3249 64.6332C60.2835 65.088 59.2207 65.4816 58.1509 65.8408C57.0767 66.1886 55.995 66.5021 54.9028 66.7688C54.7441 66.8076 54.5844 66.7106 54.5456 66.5518C54.5103 66.4075 54.5879 66.2618 54.7217 66.208L54.7237 66.207C55.7582 65.7886 56.7901 65.3756 57.8066 64.9342C58.8227 64.4924 59.8218 64.0222 60.8025 63.5261C62.7574 62.5216 64.6193 61.3692 66.3031 60.0024C66.7165 59.6526 67.132 59.3053 67.5266 58.9351C67.7296 58.757 67.9196 58.5614 68.1137 58.3719L68.4018 58.0878L68.653 57.8046C68.8322 57.6006 69.0113 57.3932 69.1715 57.1931L69.2835 57.0489L69.3278 56.9872L69.3765 56.913C69.4735 56.7672 69.5676 56.6443 69.6671 56.5184C70.0646 56.0259 70.5269 55.5815 71.0886 55.2193C71.6494 54.8635 72.3325 54.5993 73.0645 54.5735L73.3366 54.5824L73.4725 54.5889L73.5929 54.5969C73.7197 54.6098 73.8456 54.6202 73.971 54.6272C74.2208 54.6406 74.4676 54.6411 74.698 54.6222C74.9273 54.6043 75.1443 54.5635 75.301 54.5063C75.4682 54.4491 75.5095 54.3774 75.4881 54.4018C75.4886 54.4182 75.5174 54.2859 75.4761 54.1003C75.4418 53.9132 75.3677 53.6848 75.2771 53.45C75.0915 52.9723 74.8542 52.4807 74.6198 51.9458C74.3875 51.406 74.173 50.8626 74.0098 50.2476L73.9929 50.181C73.9969 50.2019 73.968 50.078 73.967 50.0058C73.9631 49.9257 73.969 49.8421 73.9879 49.758C74.0257 49.5904 74.1103 49.4227 74.2616 49.2829C74.4084 49.144 74.6412 49.0386 74.8855 49.0455C75.0074 49.0475 75.1169 49.0734 75.2194 49.1167L75.2786 49.144L75.3269 49.1674L75.4159 49.2097L75.7752 49.3729C76.0165 49.4784 76.2598 49.5769 76.5031 49.665C76.9843 49.8396 77.4883 49.9814 77.8938 50.0083C77.9933 50.0153 78.0784 50.0103 78.1451 50.0033C78.2073 49.9939 78.2361 49.9775 78.2252 49.9834C78.2142 49.9859 78.1749 50.0332 78.17 50.0491C78.1615 50.065 78.1769 50.0222 78.1695 49.9999L78.1715 49.9899L78.1665 49.9595L78.157 49.8974C78.155 49.861 78.1391 49.8023 78.1267 49.7491C78.1063 49.6461 78.066 49.5212 78.0331 49.4038C77.9565 49.1595 77.8699 48.9057 77.7774 48.648C77.4037 47.6155 76.9937 46.5418 76.6778 45.4242C76.5972 45.1446 76.525 44.861 76.4574 44.5749C76.3937 44.2923 76.3295 43.9853 76.2807 43.7196L75.9692 42.0761L75.3264 38.7942C74.8865 36.6114 74.4318 34.4221 73.9252 32.2706L75.4976 31.9412L75.502 31.9661L73.9302 32.2975C73.9133 32.2263 73.9038 32.1512 73.9029 32.0781L73.9178 32.2358C73.9223 32.2592 73.9282 32.2826 73.9367 32.3055L74.1278 32.6189C74.0611 32.5513 73.9969 32.4592 73.9551 32.3552C73.9123 32.2517 73.8939 32.1413 73.8944 32.0462L73.9342 32.298C73.9068 32.2144 73.8924 32.1219 73.8924 32.0338L73.9148 32.2254C73.6372 31.067 73.2958 29.9261 72.8883 28.8071C72.7848 28.5215 72.6848 28.2598 72.5709 27.9831C72.4574 27.709 72.339 27.4328 72.2181 27.1572C71.9763 26.6059 71.725 26.0516 71.4717 25.5057L71.2931 25.1211L71.5116 24.7574C72.5395 23.0478 73.5033 21.2884 74.3925 19.5001C75.2791 17.7104 76.0961 15.8868 76.7798 14.0249C77.4649 12.1665 78.0237 10.2604 78.2839 8.34722C78.4098 7.39339 78.4546 6.43558 78.3461 5.52255C78.2391 4.61151 77.968 3.75022 77.4868 3.05712C77.2559 2.56652 76.3041 2.39984 75.3886 2.36501C74.4557 2.33416 73.4769 2.4272 72.5047 2.55905C70.5542 2.83421 68.6018 3.27953 66.6648 3.78057C62.7907 4.7966 58.9565 6.04251 55.1755 7.40185L54.8645 7.5138L54.5635 7.37299C53.4928 6.87145 52.3971 6.37338 51.3174 5.94498C50.7975 5.74148 50.2143 5.55191 49.6565 5.36084C49.0933 5.17376 48.53 4.99364 47.9648 4.82497C46.8343 4.4916 45.6979 4.20052 44.5515 3.99453C43.4061 3.78157 42.2498 3.66216 41.0929 3.62434L41.0313 3.62036C41.0561 3.62534 41.0825 3.62583 41.1074 3.62136L41.0158 3.62384C39.6396 3.57956 38.2553 3.62981 36.8771 3.74823C35.5003 3.86765 34.131 4.06269 32.7791 4.34083C31.4283 4.62295 30.0953 4.98518 28.7892 5.42801C27.485 5.87483 26.2103 6.40622 24.9723 7.01176L24.6718 7.15854L24.3594 7.04311C20.6281 5.65988 16.8372 4.39507 13.0039 3.36859C11.0878 2.86406 9.15427 2.41178 7.22273 2.14657C6.25994 2.01771 5.29068 1.93411 4.37218 1.98138C3.91939 2.00974 3.4686 2.06995 3.10936 2.20131C2.92974 2.26499 2.7745 2.3451 2.66603 2.43168L2.59289 2.49736C2.57348 2.52373 2.55706 2.53567 2.53069 2.5705L2.35506 2.8357C1.89083 3.54622 1.6316 4.41746 1.54054 5.33348C1.44601 6.24999 1.48681 7.20382 1.61468 8.15417C1.8769 10.0588 2.41476 11.9546 3.0815 13.8045C3.74774 15.6569 4.53588 17.4755 5.39816 19.2598C6.26093 21.0436 7.19685 22.7985 8.19795 24.5061L8.39051 24.835L8.22682 25.1778C7.48545 26.7302 6.86846 28.3628 6.31915 30.0192C6.04648 30.8486 5.78874 31.684 5.54693 32.5244C5.42652 32.9448 5.3091 33.3663 5.19714 33.7882L5.03195 34.4216L4.88417 35.0177L4.87373 35.0649C4.79063 35.4177 4.70654 35.8292 4.62843 36.2163L4.39656 37.399L3.95522 39.7759L3.11533 44.5446C2.83072 46.2149 2.25305 47.7872 1.72961 49.2943C1.60323 49.668 1.47685 50.0461 1.39923 50.3845C1.35594 50.5536 1.34699 50.7089 1.34749 50.7581C1.36391 50.8527 1.37386 50.8358 1.37187 50.8427C1.37635 50.8512 1.46043 50.8865 1.5893 50.894C1.71767 50.9029 1.87888 50.8905 2.04507 50.8631C2.38043 50.8084 2.74017 50.7009 3.09493 50.572C3.45069 50.4432 3.80645 50.2914 4.15524 50.1262L4.41497 49.9999L4.47916 49.9675L4.49508 49.9595L4.52394 49.9456C4.55329 49.9322 4.58265 49.9202 4.61399 49.9103C4.74237 49.8685 4.90209 49.867 5.03494 49.9098C5.30561 49.9984 5.44891 50.1984 5.50812 50.384C5.53798 50.4785 5.54743 50.5755 5.53997 50.6651C5.53848 50.6885 5.53549 50.7074 5.532 50.7288L5.52354 50.7721L5.51907 50.793C5.46832 51.0174 5.40711 51.2268 5.34143 51.4313C5.0837 52.2498 4.7155 53.0121 4.42492 53.7251C4.28212 54.0809 4.14927 54.4411 4.1025 54.7406C4.07812 54.8889 4.08011 55.0148 4.09852 55.0919C4.10698 55.1073 4.10897 55.1297 4.11544 55.1407C4.12489 55.1491 4.11992 55.1616 4.13236 55.171C4.14728 55.1919 4.16719 55.2188 4.20749 55.2487C4.35925 55.3775 4.70754 55.4955 5.05782 55.5676C5.41657 55.6417 5.80118 55.693 6.19426 55.7353C6.36144 55.7527 6.66546 55.786 6.88886 55.8552C7.1267 55.9189 7.34314 56.0074 7.55361 56.1015C7.96908 56.2945 8.33976 56.5274 8.69104 56.7742C9.39062 57.2713 10.0166 57.8241 10.6141 58.3948C11.2107 58.966 11.7784 59.5576 12.3337 60.1512L13.1597 61.0353C13.2965 61.1801 13.4333 61.3239 13.5687 61.4598C13.7015 61.5941 13.8463 61.7324 13.9488 61.8115L13.8607 61.7573C13.9204 61.7887 13.9782 61.8319 14.0259 61.8802L13.9876 61.8444C14.7554 62.4922 15.5574 63.1012 16.4003 63.6525C17.2457 64.2003 18.1164 64.7143 19.021 65.1373C19.9285 65.5756 20.8659 65.9577 21.8248 66.2851C22.7811 66.6215 23.7593 66.8991 24.7474 67.1489C24.9639 67.2031 25.0957 67.4226 25.0415 67.639C24.9888 67.8425 24.7868 67.9714 24.5813 67.938Z" fill="#151515"/>
<path d="M73.9287 6.99085C72.9162 7.26053 71.8922 7.56503 70.8936 7.90189C69.891 8.23326 68.9033 8.60345 67.9346 9.00548C67.6903 9.10102 67.4524 9.21098 67.2136 9.31696C66.9743 9.42244 66.7354 9.52892 66.5006 9.64286L65.7946 9.97922L65.1039 10.3409C64.8706 10.4564 64.6531 10.5962 64.4277 10.7236C64.2043 10.8539 63.976 10.9758 63.7625 11.1191L63.1206 11.5281C63.0331 11.5913 62.9729 11.6729 62.939 11.77C62.9072 11.8675 62.9057 11.9749 62.9351 12.0695C62.9535 12.1153 62.9664 12.163 62.9982 12.2038C63.0142 12.2302 63.0231 12.2352 63.053 12.275L63.1913 12.4292C63.559 12.8417 63.9138 13.2621 64.2556 13.692C64.9348 14.5553 65.5587 15.4564 66.1359 16.3834C67.2867 18.2398 68.2366 20.2136 68.9426 22.2646C69.0048 22.4462 68.9083 22.6437 68.7272 22.7064C68.5665 22.7617 68.3928 22.692 68.3117 22.5497L68.3107 22.5472C67.2574 20.6923 66.1657 18.8841 64.9502 17.1685C64.3442 16.3102 63.7098 15.4753 63.0435 14.6713C62.7126 14.2672 62.3708 13.8742 62.0205 13.492L61.8887 13.3492C61.8339 13.2855 61.7499 13.1935 61.6931 13.1069C61.5663 12.9308 61.4737 12.7288 61.4095 12.5213C61.2866 12.1013 61.302 11.6495 61.4478 11.2415C61.5931 10.8325 61.8752 10.4718 62.2305 10.2315L62.948 9.78467C63.1823 9.63391 63.4257 9.50156 63.67 9.3712C63.9153 9.24332 64.1551 9.10251 64.4063 8.98907C65.3935 8.4915 66.4145 8.083 67.448 7.72376C68.4794 7.35805 69.5333 7.07095 70.5936 6.82615C71.6579 6.58832 72.7207 6.39576 73.8178 6.29575C74.0118 6.27833 74.183 6.42113 74.2009 6.61518C74.2168 6.78883 74.1039 6.94457 73.9407 6.98786L73.9287 6.99085Z" fill="#151515"/>
<g opacity="0.2">
<path opacity="0.2" d="M17.3771 12.2934C16.5879 12.878 14.6559 15.8913 13.1806 18.3065C10.9237 14.9489 9.77081 9.81601 9.55835 7.43467C9.55586 7.4078 9.55338 7.38143 9.55139 7.35754C11.7029 7.97403 14.1474 8.86218 14.6753 9.45528C15.6207 10.5156 18.7334 11.2938 17.3771 12.2934Z" fill="#151515"/>
</g>
<g opacity="0.2">
<path opacity="0.2" d="M62.6113 12.5044C63.395 13.096 65.2986 16.1277 66.7515 18.5563C69.0398 15.2201 70.2405 10.0982 70.4753 7.71836C70.4783 7.69149 70.4808 7.66512 70.4833 7.64124C68.3263 8.23782 65.8733 9.10308 65.3399 9.6912C64.3836 10.7431 61.2644 11.4924 62.6113 12.5044Z" fill="#151515"/>
</g>
</svg>
